{
    "data": [{
            "id": 77,
            "parentId": 15,
            "en_text": "Коровка",
            "ru_text": "Коровка",
            "type": 33
        },
        { "id": 78, "parentId": 15, "en_text": "Abyssinian", "ru_text": "Сиамский", "type": 10, "children":true },
        { "id": 79, "parentId": 15, "en_text": "Aegean cat", "ru_text": "Египетский", "type": 11 }
    ],

    "total": 3
}
